435.1628381448122	1.1503991785046548
452.1230689201491	1.2393888777231883
467.7051331636522	1.34305537493392
502.06809426253733	1.6388713897019187
551.9786654416297	2.2887208216304575
601.4143096247029	3.0563730912984663
652.2321737705859	3.7798936312154705
703.0338241925649	4.621233898167679
751.992514664131	5.521416471454555
802.7576842073262	6.627851124235969

